{
    "project_info": {
        "project_number": "712388158437",
        "firebase_url": "https://pidetaxi-8554a.firebaseio.com",
        "project_id": "pidetaxi-8554a",
        "storage_bucket": "pidetaxi-8554a.appspot.com"
    },
    "client": [{
        "client_info": {
            "mobilesdk_app_id": "1:712388158437:android:c67528a2ffa6d725b7050c",
            "android_client_info": {
                "package_name": "com.codesundar.iontaxirider"
            }
        },
        "oauth_client": [{
            "client_id": "712388158437-6chd081ubp6ln2gg5bglk6b8j71unbqo.apps.googleusercontent.com",
            "client_type": 3
        }],
        "api_key": [{
            "current_key": "AIzaSyD4zScSG7ha39SQeaxn3DcmJCtPlh6_MCk"
        }],
        "services": {
            "appinvite_service": {
                "other_platform_oauth_client": [{
                    "client_id": "712388158437-6chd081ubp6ln2gg5bglk6b8j71unbqo.apps.googleusercontent.com",
                    "client_type": 3
                }]
            }
        }
    }],
    "configuration_version": "1"
}